2014-05-15 14:06:51
a:2:{s:7:"payment";s:173:"amt=0.3&ccy=UAH&details=photo&ext_details=&pay_way=privat24&order=1758&merchant=100967&state=test&date=150514140535&ref=test payment&sender_phone=+380636885351&payCountry=UA";s:9:"signature";s:40:"3319ab1731489a6a789723d9f8a984fef5033b0c";}
2014-05-15 14:28:03
 POST polnuj  a:2:{s:7:"payment";s:173:"amt=0.3&ccy=UAH&details=photo&ext_details=&pay_way=privat24&order=1759&merchant=100967&state=test&date=150514142648&ref=test payment&sender_phone=+380636885351&payCountry=UA";s:9:"signature";s:40:"89ffc93b9b27e7f085becc7b63244b82ab9330a2";}
 
 POST payment  amt=0.3&ccy=UAH&details=photo&ext_details=&pay_way=privat24&order=1759&merchant=100967&state=test&date=150514142648&ref=test payment&sender_phone=+380636885351&payCountry=UA
 
 POST signature  89ffc93b9b27e7f085becc7b63244b82ab9330a2
 
 Запрос прошел проверку 
 2014-05-15 15:49:16
 POST polnuj  a:2:{s:7:"payment";s:173:"amt=0.3&ccy=UAH&details=photo&ext_details=&pay_way=privat24&order=1762&merchant=100967&state=test&date=150514154800&ref=test payment&sender_phone=+380636885351&payCountry=UA";s:9:"signature";s:40:"a895e5fc94bdc444edc16bde111146e806e3b309";}
 
 POST payment  amt=0.3&ccy=UAH&details=photo&ext_details=&pay_way=privat24&order=1762&merchant=100967&state=test&date=150514154800&ref=test payment&sender_phone=+380636885351&payCountry=UA
 
 POST signature  a895e5fc94bdc444edc16bde111146e806e3b309
 
 Запрос прошел проверку сигнатуры 
 2014-05-15 15:49:17
 POST polnuj  a:2:{s:7:"payment";s:173:"amt=0.3&ccy=UAH&details=photo&ext_details=&pay_way=privat24&order=1762&merchant=100967&state=test&date=150514154800&ref=test payment&sender_phone=+380636885351&payCountry=UA";s:9:"signature";s:40:"a895e5fc94bdc444edc16bde111146e806e3b309";}
 
 POST payment  amt=0.3&ccy=UAH&details=photo&ext_details=&pay_way=privat24&order=1762&merchant=100967&state=test&date=150514154800&ref=test payment&sender_phone=+380636885351&payCountry=UA
 
 POST signature  a895e5fc94bdc444edc16bde111146e806e3b309
 
 Запрос прошел проверку сигнатуры 
 2014-05-15 15:49:18
 POST polnuj  a:2:{s:7:"payment";s:173:"amt=0.3&ccy=UAH&details=photo&ext_details=&pay_way=privat24&order=1762&merchant=100967&state=test&date=150514154800&ref=test payment&sender_phone=+380636885351&payCountry=UA";s:9:"signature";s:40:"a895e5fc94bdc444edc16bde111146e806e3b309";}
 
 POST payment  amt=0.3&ccy=UAH&details=photo&ext_details=&pay_way=privat24&order=1762&merchant=100967&state=test&date=150514154800&ref=test payment&sender_phone=+380636885351&payCountry=UA
 
 POST signature  a895e5fc94bdc444edc16bde111146e806e3b309
 
 Запрос прошел проверку сигнатуры 
 2014-05-15 15:49:19
 POST polnuj  a:2:{s:7:"payment";s:173:"amt=0.3&ccy=UAH&details=photo&ext_details=&pay_way=privat24&order=1762&merchant=100967&state=test&date=150514154800&ref=test payment&sender_phone=+380636885351&payCountry=UA";s:9:"signature";s:40:"a895e5fc94bdc444edc16bde111146e806e3b309";}
 
 POST payment  amt=0.3&ccy=UAH&details=photo&ext_details=&pay_way=privat24&order=1762&merchant=100967&state=test&date=150514154800&ref=test payment&sender_phone=+380636885351&payCountry=UA
 
 POST signature  a895e5fc94bdc444edc16bde111146e806e3b309
 
 Запрос прошел проверку сигнатуры 
 2014-05-15 15:49:20
 POST polnuj  a:2:{s:7:"payment";s:173:"amt=0.3&ccy=UAH&details=photo&ext_details=&pay_way=privat24&order=1762&merchant=100967&state=test&date=150514154800&ref=test payment&sender_phone=+380636885351&payCountry=UA";s:9:"signature";s:40:"a895e5fc94bdc444edc16bde111146e806e3b309";}
 
 POST payment  amt=0.3&ccy=UAH&details=photo&ext_details=&pay_way=privat24&order=1762&merchant=100967&state=test&date=150514154800&ref=test payment&sender_phone=+380636885351&payCountry=UA
 
 POST signature  a895e5fc94bdc444edc16bde111146e806e3b309
 
 Запрос прошел проверку сигнатуры 
 2014-05-15 15:49:21
 POST polnuj  a:2:{s:7:"payment";s:173:"amt=0.3&ccy=UAH&details=photo&ext_details=&pay_way=privat24&order=1762&merchant=100967&state=test&date=150514154800&ref=test payment&sender_phone=+380636885351&payCountry=UA";s:9:"signature";s:40:"a895e5fc94bdc444edc16bde111146e806e3b309";}
 
 POST payment  amt=0.3&ccy=UAH&details=photo&ext_details=&pay_way=privat24&order=1762&merchant=100967&state=test&date=150514154800&ref=test payment&sender_phone=+380636885351&payCountry=UA
 
 POST signature  a895e5fc94bdc444edc16bde111146e806e3b309
 
 Запрос прошел проверку сигнатуры 
 2014-05-15 15:49:22
 POST polnuj  a:2:{s:7:"payment";s:173:"amt=0.3&ccy=UAH&details=photo&ext_details=&pay_way=privat24&order=1762&merchant=100967&state=test&date=150514154800&ref=test payment&sender_phone=+380636885351&payCountry=UA";s:9:"signature";s:40:"a895e5fc94bdc444edc16bde111146e806e3b309";}
 
 POST payment  amt=0.3&ccy=UAH&details=photo&ext_details=&pay_way=privat24&order=1762&merchant=100967&state=test&date=150514154800&ref=test payment&sender_phone=+380636885351&payCountry=UA
 
 POST signature  a895e5fc94bdc444edc16bde111146e806e3b309
 
 Запрос прошел проверку сигнатуры 
 2014-05-15 15:49:23
 POST polnuj  a:2:{s:7:"payment";s:173:"amt=0.3&ccy=UAH&details=photo&ext_details=&pay_way=privat24&order=1762&merchant=100967&state=test&date=150514154800&ref=test payment&sender_phone=+380636885351&payCountry=UA";s:9:"signature";s:40:"a895e5fc94bdc444edc16bde111146e806e3b309";}
 
 POST payment  amt=0.3&ccy=UAH&details=photo&ext_details=&pay_way=privat24&order=1762&merchant=100967&state=test&date=150514154800&ref=test payment&sender_phone=+380636885351&payCountry=UA
 
 POST signature  a895e5fc94bdc444edc16bde111146e806e3b309
 
 Запрос прошел проверку сигнатуры 
 2014-05-15 15:49:24
 POST polnuj  a:2:{s:7:"payment";s:173:"amt=0.3&ccy=UAH&details=photo&ext_details=&pay_way=privat24&order=1762&merchant=100967&state=test&date=150514154800&ref=test payment&sender_phone=+380636885351&payCountry=UA";s:9:"signature";s:40:"a895e5fc94bdc444edc16bde111146e806e3b309";}
 
 POST payment  amt=0.3&ccy=UAH&details=photo&ext_details=&pay_way=privat24&order=1762&merchant=100967&state=test&date=150514154800&ref=test payment&sender_phone=+380636885351&payCountry=UA
 
 POST signature  a895e5fc94bdc444edc16bde111146e806e3b309
 
 Запрос прошел проверку сигнатуры 
 2014-05-15 15:49:25
 POST polnuj  a:2:{s:7:"payment";s:173:"amt=0.3&ccy=UAH&details=photo&ext_details=&pay_way=privat24&order=1762&merchant=100967&state=test&date=150514154800&ref=test payment&sender_phone=+380636885351&payCountry=UA";s:9:"signature";s:40:"a895e5fc94bdc444edc16bde111146e806e3b309";}
 
 POST payment  amt=0.3&ccy=UAH&details=photo&ext_details=&pay_way=privat24&order=1762&merchant=100967&state=test&date=150514154800&ref=test payment&sender_phone=+380636885351&payCountry=UA
 
 POST signature  a895e5fc94bdc444edc16bde111146e806e3b309
 
 Запрос прошел проверку сигнатуры 
 2014-05-15 15:49:26
 POST polnuj  a:2:{s:7:"payment";s:173:"amt=0.3&ccy=UAH&details=photo&ext_details=&pay_way=privat24&order=1762&merchant=100967&state=test&date=150514154800&ref=test payment&sender_phone=+380636885351&payCountry=UA";s:9:"signature";s:40:"a895e5fc94bdc444edc16bde111146e806e3b309";}
 
 POST payment  amt=0.3&ccy=UAH&details=photo&ext_details=&pay_way=privat24&order=1762&merchant=100967&state=test&date=150514154800&ref=test payment&sender_phone=+380636885351&payCountry=UA
 
 POST signature  a895e5fc94bdc444edc16bde111146e806e3b309
 
 Запрос прошел проверку сигнатуры 
 2014-05-15 15:57:26
 POST polnuj  a:2:{s:7:"payment";s:173:"amt=0.3&ccy=UAH&details=photo&ext_details=&pay_way=privat24&order=1763&merchant=100967&state=test&date=150514155610&ref=test payment&sender_phone=+380636885351&payCountry=UA";s:9:"signature";s:40:"937ba143261ebca9032af459d4941fcef28d4320";}
 
 POST payment  amt=0.3&ccy=UAH&details=photo&ext_details=&pay_way=privat24&order=1763&merchant=100967&state=test&date=150514155610&ref=test payment&sender_phone=+380636885351&payCountry=UA
 
 POST signature  937ba143261ebca9032af459d4941fcef28d4320
 
 Запрос прошел проверку сигнатуры 
 2014-05-15 15:57:27
 POST polnuj  a:2:{s:7:"payment";s:173:"amt=0.3&ccy=UAH&details=photo&ext_details=&pay_way=privat24&order=1763&merchant=100967&state=test&date=150514155610&ref=test payment&sender_phone=+380636885351&payCountry=UA";s:9:"signature";s:40:"937ba143261ebca9032af459d4941fcef28d4320";}
 
 POST payment  amt=0.3&ccy=UAH&details=photo&ext_details=&pay_way=privat24&order=1763&merchant=100967&state=test&date=150514155610&ref=test payment&sender_phone=+380636885351&payCountry=UA
 
 POST signature  937ba143261ebca9032af459d4941fcef28d4320
 
 Запрос прошел проверку сигнатуры 
 2014-05-15 15:57:28
 POST polnuj  a:2:{s:7:"payment";s:173:"amt=0.3&ccy=UAH&details=photo&ext_details=&pay_way=privat24&order=1763&merchant=100967&state=test&date=150514155610&ref=test payment&sender_phone=+380636885351&payCountry=UA";s:9:"signature";s:40:"937ba143261ebca9032af459d4941fcef28d4320";}
 
 POST payment  amt=0.3&ccy=UAH&details=photo&ext_details=&pay_way=privat24&order=1763&merchant=100967&state=test&date=150514155610&ref=test payment&sender_phone=+380636885351&payCountry=UA
 
 POST signature  937ba143261ebca9032af459d4941fcef28d4320
 
 Запрос прошел проверку сигнатуры 
 2014-05-15 15:57:29
 POST polnuj  a:2:{s:7:"payment";s:173:"amt=0.3&ccy=UAH&details=photo&ext_details=&pay_way=privat24&order=1763&merchant=100967&state=test&date=150514155610&ref=test payment&sender_phone=+380636885351&payCountry=UA";s:9:"signature";s:40:"937ba143261ebca9032af459d4941fcef28d4320";}
 
 POST payment  amt=0.3&ccy=UAH&details=photo&ext_details=&pay_way=privat24&order=1763&merchant=100967&state=test&date=150514155610&ref=test payment&sender_phone=+380636885351&payCountry=UA
 
 POST signature  937ba143261ebca9032af459d4941fcef28d4320
 
 Запрос прошел проверку сигнатуры 
 2014-05-15 15:57:30
 POST polnuj  a:2:{s:7:"payment";s:173:"amt=0.3&ccy=UAH&details=photo&ext_details=&pay_way=privat24&order=1763&merchant=100967&state=test&date=150514155610&ref=test payment&sender_phone=+380636885351&payCountry=UA";s:9:"signature";s:40:"937ba143261ebca9032af459d4941fcef28d4320";}
 
 POST payment  amt=0.3&ccy=UAH&details=photo&ext_details=&pay_way=privat24&order=1763&merchant=100967&state=test&date=150514155610&ref=test payment&sender_phone=+380636885351&payCountry=UA
 
 POST signature  937ba143261ebca9032af459d4941fcef28d4320
 
 Запрос прошел проверку сигнатуры 
 2014-05-15 15:57:31
 POST polnuj  a:2:{s:7:"payment";s:173:"amt=0.3&ccy=UAH&details=photo&ext_details=&pay_way=privat24&order=1763&merchant=100967&state=test&date=150514155610&ref=test payment&sender_phone=+380636885351&payCountry=UA";s:9:"signature";s:40:"937ba143261ebca9032af459d4941fcef28d4320";}
 
 POST payment  amt=0.3&ccy=UAH&details=photo&ext_details=&pay_way=privat24&order=1763&merchant=100967&state=test&date=150514155610&ref=test payment&sender_phone=+380636885351&payCountry=UA
 
 POST signature  937ba143261ebca9032af459d4941fcef28d4320
 
 Запрос прошел проверку сигнатуры 
 2014-05-15 15:57:32
 POST polnuj  a:2:{s:7:"payment";s:173:"amt=0.3&ccy=UAH&details=photo&ext_details=&pay_way=privat24&order=1763&merchant=100967&state=test&date=150514155610&ref=test payment&sender_phone=+380636885351&payCountry=UA";s:9:"signature";s:40:"937ba143261ebca9032af459d4941fcef28d4320";}
 
 POST payment  amt=0.3&ccy=UAH&details=photo&ext_details=&pay_way=privat24&order=1763&merchant=100967&state=test&date=150514155610&ref=test payment&sender_phone=+380636885351&payCountry=UA
 
 POST signature  937ba143261ebca9032af459d4941fcef28d4320
 
 Запрос прошел проверку сигнатуры 
 2014-05-15 15:57:33
 POST polnuj  a:2:{s:7:"payment";s:173:"amt=0.3&ccy=UAH&details=photo&ext_details=&pay_way=privat24&order=1763&merchant=100967&state=test&date=150514155610&ref=test payment&sender_phone=+380636885351&payCountry=UA";s:9:"signature";s:40:"937ba143261ebca9032af459d4941fcef28d4320";}
 
 POST payment  amt=0.3&ccy=UAH&details=photo&ext_details=&pay_way=privat24&order=1763&merchant=100967&state=test&date=150514155610&ref=test payment&sender_phone=+380636885351&payCountry=UA
 
 POST signature  937ba143261ebca9032af459d4941fcef28d4320
 
 Запрос прошел проверку сигнатуры 
 2014-05-15 15:57:34
 POST polnuj  a:2:{s:7:"payment";s:173:"amt=0.3&ccy=UAH&details=photo&ext_details=&pay_way=privat24&order=1763&merchant=100967&state=test&date=150514155610&ref=test payment&sender_phone=+380636885351&payCountry=UA";s:9:"signature";s:40:"937ba143261ebca9032af459d4941fcef28d4320";}
 
 POST payment  amt=0.3&ccy=UAH&details=photo&ext_details=&pay_way=privat24&order=1763&merchant=100967&state=test&date=150514155610&ref=test payment&sender_phone=+380636885351&payCountry=UA
 
 POST signature  937ba143261ebca9032af459d4941fcef28d4320
 
 Запрос прошел проверку сигнатуры 
 2014-05-15 15:57:35
 POST polnuj  a:2:{s:7:"payment";s:173:"amt=0.3&ccy=UAH&details=photo&ext_details=&pay_way=privat24&order=1763&merchant=100967&state=test&date=150514155610&ref=test payment&sender_phone=+380636885351&payCountry=UA";s:9:"signature";s:40:"937ba143261ebca9032af459d4941fcef28d4320";}
 
 POST payment  amt=0.3&ccy=UAH&details=photo&ext_details=&pay_way=privat24&order=1763&merchant=100967&state=test&date=150514155610&ref=test payment&sender_phone=+380636885351&payCountry=UA
 
 POST signature  937ba143261ebca9032af459d4941fcef28d4320
 
 Запрос прошел проверку сигнатуры 
 2014-05-15 15:57:36
 POST polnuj  a:2:{s:7:"payment";s:173:"amt=0.3&ccy=UAH&details=photo&ext_details=&pay_way=privat24&order=1763&merchant=100967&state=test&date=150514155610&ref=test payment&sender_phone=+380636885351&payCountry=UA";s:9:"signature";s:40:"937ba143261ebca9032af459d4941fcef28d4320";}
 
 POST payment  amt=0.3&ccy=UAH&details=photo&ext_details=&pay_way=privat24&order=1763&merchant=100967&state=test&date=150514155610&ref=test payment&sender_phone=+380636885351&payCountry=UA
 
 POST signature  937ba143261ebca9032af459d4941fcef28d4320
 
 Запрос прошел проверку сигнатуры 
 2014-05-15 16:01:12
 POST polnuj  a:1:{s:7:"payment";s:173:"amt=0.3&ccy=UAH&details=photo&ext_details=&pay_way=privat24&order=1759&merchant=100967&state=test&date=150514142648&ref=test payment&sender_phone=+380636885351&payCountry=UA";}
 
 POST payment  amt=0.3&ccy=UAH&details=photo&ext_details=&pay_way=privat24&order=1759&merchant=100967&state=test&date=150514142648&ref=test payment&sender_phone=+380636885351&payCountry=UA
 
 POST signature  
 
 Запрос прошел проверку сигнатуры 
 2014-05-15 16:02:46
 POST polnuj  a:1:{s:7:"payment";s:173:"amt=0.3&ccy=UAH&details=photo&ext_details=&pay_way=privat24&order=1759&merchant=100967&state=test&date=150514142648&ref=test payment&sender_phone=+380636885351&payCountry=UA";}
 
 POST payment  amt=0.3&ccy=UAH&details=photo&ext_details=&pay_way=privat24&order=1759&merchant=100967&state=test&date=150514142648&ref=test payment&sender_phone=+380636885351&payCountry=UA
 
 POST signature  
 
 Запрос прошел проверку сигнатуры 
 2014-05-15 16:02:53
 POST polnuj  a:1:{s:7:"payment";s:173:"amt=0.3&ccy=UAH&details=photo&ext_details=&pay_way=privat24&order=1759&merchant=100967&state=test&date=150514142648&ref=test payment&sender_phone=+380636885351&payCountry=UA";}
 
 POST payment  amt=0.3&ccy=UAH&details=photo&ext_details=&pay_way=privat24&order=1759&merchant=100967&state=test&date=150514142648&ref=test payment&sender_phone=+380636885351&payCountry=UA
 
 POST signature  
 
 Запрос прошел проверку сигнатуры 
 2014-05-15 16:03:18
 POST polnuj  a:1:{s:7:"payment";s:173:"amt=0.3&ccy=UAH&details=photo&ext_details=&pay_way=privat24&order=1759&merchant=100967&state=test&date=150514142648&ref=test payment&sender_phone=+380636885351&payCountry=UA";}
 
 POST payment  amt=0.3&ccy=UAH&details=photo&ext_details=&pay_way=privat24&order=1759&merchant=100967&state=test&date=150514142648&ref=test payment&sender_phone=+380636885351&payCountry=UA
 
 POST signature  
 
 Запрос прошел проверку сигнатуры 
 2014-05-15 16:05:19
 POST polnuj  a:1:{s:7:"payment";s:173:"amt=0.3&ccy=UAH&details=photo&ext_details=&pay_way=privat24&order=1759&merchant=100967&state=test&date=150514142648&ref=test payment&sender_phone=+380636885351&payCountry=UA";}
 
 POST payment  amt=0.3&ccy=UAH&details=photo&ext_details=&pay_way=privat24&order=1759&merchant=100967&state=test&date=150514142648&ref=test payment&sender_phone=+380636885351&payCountry=UA
 
 POST signature  
 
 Запрос прошел проверку сигнатуры 
 2014-05-15 16:05:20
 POST polnuj  a:1:{s:7:"payment";s:173:"amt=0.3&ccy=UAH&details=photo&ext_details=&pay_way=privat24&order=1759&merchant=100967&state=test&date=150514142648&ref=test payment&sender_phone=+380636885351&payCountry=UA";}
 
 POST payment  amt=0.3&ccy=UAH&details=photo&ext_details=&pay_way=privat24&order=1759&merchant=100967&state=test&date=150514142648&ref=test payment&sender_phone=+380636885351&payCountry=UA
 
 POST signature  
 
 Запрос прошел проверку сигнатуры 
 2014-05-15 16:05:21
 POST polnuj  a:1:{s:7:"payment";s:173:"amt=0.3&ccy=UAH&details=photo&ext_details=&pay_way=privat24&order=1759&merchant=100967&state=test&date=150514142648&ref=test payment&sender_phone=+380636885351&payCountry=UA";}
 
 POST payment  amt=0.3&ccy=UAH&details=photo&ext_details=&pay_way=privat24&order=1759&merchant=100967&state=test&date=150514142648&ref=test payment&sender_phone=+380636885351&payCountry=UA
 
 POST signature  
 
 Запрос прошел проверку сигнатуры 
 2014-05-15 16:05:24
 POST polnuj  a:1:{s:7:"payment";s:173:"amt=0.3&ccy=UAH&details=photo&ext_details=&pay_way=privat24&order=1759&merchant=100967&state=test&date=150514142648&ref=test payment&sender_phone=+380636885351&payCountry=UA";}
 
 POST payment  amt=0.3&ccy=UAH&details=photo&ext_details=&pay_way=privat24&order=1759&merchant=100967&state=test&date=150514142648&ref=test payment&sender_phone=+380636885351&payCountry=UA
 
 POST signature  
 
 Запрос прошел проверку сигнатуры 
 2014-05-15 16:05:25
 POST polnuj  a:1:{s:7:"payment";s:173:"amt=0.3&ccy=UAH&details=photo&ext_details=&pay_way=privat24&order=1759&merchant=100967&state=test&date=150514142648&ref=test payment&sender_phone=+380636885351&payCountry=UA";}
 
 POST payment  amt=0.3&ccy=UAH&details=photo&ext_details=&pay_way=privat24&order=1759&merchant=100967&state=test&date=150514142648&ref=test payment&sender_phone=+380636885351&payCountry=UA
 
 POST signature  
 
 Запрос прошел проверку сигнатуры 
 2014-05-15 16:05:25
 POST polnuj  a:1:{s:7:"payment";s:173:"amt=0.3&ccy=UAH&details=photo&ext_details=&pay_way=privat24&order=1759&merchant=100967&state=test&date=150514142648&ref=test payment&sender_phone=+380636885351&payCountry=UA";}
 
 POST payment  amt=0.3&ccy=UAH&details=photo&ext_details=&pay_way=privat24&order=1759&merchant=100967&state=test&date=150514142648&ref=test payment&sender_phone=+380636885351&payCountry=UA
 
 POST signature  
 
 Запрос прошел проверку сигнатуры 
 2014-05-15 16:05:25
 POST polnuj  a:1:{s:7:"payment";s:173:"amt=0.3&ccy=UAH&details=photo&ext_details=&pay_way=privat24&order=1759&merchant=100967&state=test&date=150514142648&ref=test payment&sender_phone=+380636885351&payCountry=UA";}
 
 POST payment  amt=0.3&ccy=UAH&details=photo&ext_details=&pay_way=privat24&order=1759&merchant=100967&state=test&date=150514142648&ref=test payment&sender_phone=+380636885351&payCountry=UA
 
 POST signature  
 
 Запрос прошел проверку сигнатуры 
 2014-05-15 16:05:26
 POST polnuj  a:1:{s:7:"payment";s:173:"amt=0.3&ccy=UAH&details=photo&ext_details=&pay_way=privat24&order=1759&merchant=100967&state=test&date=150514142648&ref=test payment&sender_phone=+380636885351&payCountry=UA";}
 
 POST payment  amt=0.3&ccy=UAH&details=photo&ext_details=&pay_way=privat24&order=1759&merchant=100967&state=test&date=150514142648&ref=test payment&sender_phone=+380636885351&payCountry=UA
 
 POST signature  
 
 Запрос прошел проверку сигнатуры 
 2014-05-15 16:05:26
 POST polnuj  a:1:{s:7:"payment";s:173:"amt=0.3&ccy=UAH&details=photo&ext_details=&pay_way=privat24&order=1759&merchant=100967&state=test&date=150514142648&ref=test payment&sender_phone=+380636885351&payCountry=UA";}
 
 POST payment  amt=0.3&ccy=UAH&details=photo&ext_details=&pay_way=privat24&order=1759&merchant=100967&state=test&date=150514142648&ref=test payment&sender_phone=+380636885351&payCountry=UA
 
 POST signature  
 
 Запрос прошел проверку сигнатуры 
 2014-05-15 16:05:26
 POST polnuj  a:1:{s:7:"payment";s:173:"amt=0.3&ccy=UAH&details=photo&ext_details=&pay_way=privat24&order=1759&merchant=100967&state=test&date=150514142648&ref=test payment&sender_phone=+380636885351&payCountry=UA";}
 
 POST payment  amt=0.3&ccy=UAH&details=photo&ext_details=&pay_way=privat24&order=1759&merchant=100967&state=test&date=150514142648&ref=test payment&sender_phone=+380636885351&payCountry=UA
 
 POST signature  
 
 Запрос прошел проверку сигнатуры 
 2014-05-15 16:05:26
 POST polnuj  a:1:{s:7:"payment";s:173:"amt=0.3&ccy=UAH&details=photo&ext_details=&pay_way=privat24&order=1759&merchant=100967&state=test&date=150514142648&ref=test payment&sender_phone=+380636885351&payCountry=UA";}
 
 POST payment  amt=0.3&ccy=UAH&details=photo&ext_details=&pay_way=privat24&order=1759&merchant=100967&state=test&date=150514142648&ref=test payment&sender_phone=+380636885351&payCountry=UA
 
 POST signature  
 
 Запрос прошел проверку сигнатуры 
 2014-05-15 16:09:52
 POST polnuj  a:2:{s:7:"payment";s:173:"amt=0.3&ccy=UAH&details=photo&ext_details=&pay_way=privat24&order=1764&merchant=100967&state=test&date=150514160836&ref=test payment&sender_phone=+380636885351&payCountry=UA";s:9:"signature";s:40:"5a11b7c489bc1ec2683c7257301b80d5a5114a5f";}
 
 POST payment  amt=0.3&ccy=UAH&details=photo&ext_details=&pay_way=privat24&order=1764&merchant=100967&state=test&date=150514160836&ref=test payment&sender_phone=+380636885351&payCountry=UA
 
 POST signature  5a11b7c489bc1ec2683c7257301b80d5a5114a5f
 
 Запрос прошел проверку сигнатуры 
 2014-05-15 16:13:49
 POST polnuj  a:2:{s:7:"payment";s:174:"amt=3.60&ccy=UAH&details=photo&ext_details=&pay_way=privat24&order=1765&merchant=100967&state=test&date=150514161233&ref=test payment&sender_phone=+380636885351&payCountry=UA";s:9:"signature";s:40:"d8f88f4917f7547db92d599fa270a1e5ae8e4917";}
 
 POST payment  amt=3.60&ccy=UAH&details=photo&ext_details=&pay_way=privat24&order=1765&merchant=100967&state=test&date=150514161233&ref=test payment&sender_phone=+380636885351&payCountry=UA
 
 POST signature  d8f88f4917f7547db92d599fa270a1e5ae8e4917
 
 Запрос прошел проверку сигнатуры 
 2014-05-15 16:13:50
 POST polnuj  a:2:{s:7:"payment";s:174:"amt=3.60&ccy=UAH&details=photo&ext_details=&pay_way=privat24&order=1765&merchant=100967&state=test&date=150514161233&ref=test payment&sender_phone=+380636885351&payCountry=UA";s:9:"signature";s:40:"d8f88f4917f7547db92d599fa270a1e5ae8e4917";}
 
 POST payment  amt=3.60&ccy=UAH&details=photo&ext_details=&pay_way=privat24&order=1765&merchant=100967&state=test&date=150514161233&ref=test payment&sender_phone=+380636885351&payCountry=UA
 
 POST signature  d8f88f4917f7547db92d599fa270a1e5ae8e4917
 
 Запрос прошел проверку сигнатуры 
 2014-05-16 09:17:43
 POST polnuj  a:0:{}
 
 POST payment  
 
 POST signature  
 2014-06-07 14:48:40
 POST polnuj  a:2:{s:7:"payment";s:181:"amt=470.20&ccy=UAH&details=photo&ext_details=&pay_way=privat24&order=2063&merchant=100967&state=ok&date=070614144705&ref=P24A726394494735161&sender_phone=+380985926411&payCountry=UA";s:9:"signature";s:40:"b25b256b6f6c498f56ee843152f2a292c7af757c";}
 
 POST payment  amt=470.20&ccy=UAH&details=photo&ext_details=&pay_way=privat24&order=2063&merchant=100967&state=ok&date=070614144705&ref=P24A726394494735161&sender_phone=+380985926411&payCountry=UA
 
 POST signature  b25b256b6f6c498f56ee843152f2a292c7af757c
 
 Запрос прошел проверку сигнатуры 
 2014-06-07 14:48:47
 POST polnuj  a:2:{s:7:"payment";s:181:"amt=470.20&ccy=UAH&details=photo&ext_details=&pay_way=privat24&order=2063&merchant=100967&state=ok&date=070614144705&ref=P24A726394494735161&sender_phone=+380985926411&payCountry=UA";s:9:"signature";s:40:"b25b256b6f6c498f56ee843152f2a292c7af757c";}
 
 POST payment  amt=470.20&ccy=UAH&details=photo&ext_details=&pay_way=privat24&order=2063&merchant=100967&state=ok&date=070614144705&ref=P24A726394494735161&sender_phone=+380985926411&payCountry=UA
 
 POST signature  b25b256b6f6c498f56ee843152f2a292c7af757c
 
 Запрос прошел проверку сигнатуры 
 2014-07-02 12:04:16
 POST polnuj  a:2:{s:7:"payment";s:180:"amt=67.00&ccy=UAH&details=photo&ext_details=&pay_way=privat24&order=2242&merchant=100967&state=ok&date=020714120619&ref=P24A799948140510691&sender_phone=+380969215660&payCountry=UA";s:9:"signature";s:40:"536fdad5e5784006687036d355b64852dbab11b8";}
 
 POST payment  amt=67.00&ccy=UAH&details=photo&ext_details=&pay_way=privat24&order=2242&merchant=100967&state=ok&date=020714120619&ref=P24A799948140510691&sender_phone=+380969215660&payCountry=UA
 
 POST signature  536fdad5e5784006687036d355b64852dbab11b8
 
 Запрос прошел проверку сигнатуры 
 2014-07-02 12:04:24
 POST polnuj  a:2:{s:7:"payment";s:180:"amt=67.00&ccy=UAH&details=photo&ext_details=&pay_way=privat24&order=2242&merchant=100967&state=ok&date=020714120619&ref=P24A799948140510691&sender_phone=+380969215660&payCountry=UA";s:9:"signature";s:40:"536fdad5e5784006687036d355b64852dbab11b8";}
 
 POST payment  amt=67.00&ccy=UAH&details=photo&ext_details=&pay_way=privat24&order=2242&merchant=100967&state=ok&date=020714120619&ref=P24A799948140510691&sender_phone=+380969215660&payCountry=UA
 
 POST signature  536fdad5e5784006687036d355b64852dbab11b8
 
 Запрос прошел проверку сигнатуры 
 